{
    "error": false,
    "amount": 4,
    "jokes":
    [
        {
            "category": "Misc",
            "type": "single",
            "joke": "My husband and I were happy for 20 years. And then we met.",
            "flags": {
                "nsfw": false,
                "religious": false,
                "political": false,
                "racist": false,
                "sexist": false,
                "explicit": false
            },
            "safe": true,
            "id": 273,
            "lang": "en"
        },
        {
            "category": "Programming",
            "type": "single",
            "joke": "\"Can I tell you a TCP joke?\"\n\"Please tell me a TCP joke.\"\n\"OK, I'll tell you a TCP joke.\"",
            "flags": {
                "nsfw": false,
                "religious": false,
                "political": false,
                "racist": false,
                "sexist": false,
                "explicit": false
            },
            "id": 57,
            "safe": true,
            "lang": "en"
        },
        {
            "category": "Pun",
            "type": "single",
            "joke": "I was reading a great book about an immortal dog the other day. It was impossible to put down.",
            "flags": {
                "nsfw": false,
                "religious": false,
                "political": false,
                "racist": false,
                "sexist": false,
                "explicit": false
            },
            "id": 236,
            "safe": true,
            "lang": "en"
        },
        {
            "category": "Dark",
            "type": "single",
            "joke": "Me and my Jewish friend were eating lunch and I farted. He got mad so I said \"cmon man a little gas never killed anyone\".",
            "flags": {
                "nsfw": false,
                "religious": false,
                "political": false,
                "racist": true,
                "sexist": false,
                "explicit": true
            },
            "id": 103,
            "safe": false,
            "lang": "en"
        }
    ]
}